{
    "name": "earthdawn4e",
    "title": "Earthdawn 4th Edition",
    "description": "An implementation of the Earthdawn 4th Edition ruleset.",
    "version": "0.0.1",
    "minimumCoreVersion": "0.7.9",
    "compatibleCoreVersion": "0.7.9",
    "templateVersion": 2,
    "author": "Tom LaPorta",
    "esmodules": ["earthdawn4e.js"],
    "styles": ["styles/earthdawn4e.css"],
    "packs": [
      ],
    "languages": [
       {
        "lang": "en",
        "name": "English",
        "path": "lang/en.json"
      }
    ],
    "gridDistance": 5,
    "gridUnits": "ft",
    "primaryTokenAttribute": "damage",
    "url": "https://gitlab.com/fattom23/earthdawn4e-foundry",
    "manifest": "https://gitlab.com/fattom23/earthdawn4e-foundry/-/raw/master/system.json",
    "download": "https://gitlab.com/fattom23/earthdawn4e-foundry/-/raw/master/earthdawn4e-foundry-master.zip",
    "license": "LICENSE.txt"
  }
  